<svg width="69" height="68" viewBox="0 0 69 68" xmlns="http://www.w3.org/2000/svg" xmlns:xlink="http://www.w3.org/1999/xlink">
    <defs>
        <path id="le4pyotc2a" d="M0 67.5h68.657V0H0z"/>
    </defs>
    <g fill="none" fill-rule="evenodd">
        <path fill="#FBC143" d="M15 2h39v36H15z"/>
        <path fill="#FFF" d="M27 18h15v10H27z"/>
        <circle fill="#FBC143" cx="6.5" cy="38.5" r="3.5"/>
        <circle fill="#FBC143" cx="35.5" cy="38.5" r="3.5"/>
        <circle fill="#FBC143" cx="62.5" cy="38.5" r="3.5"/>
        <path d="M16.586 39.343h10.333v-2.314H16.586a.386.386 0 0 1-.386-.386V2.7c0-.212.173-.386.386-.386h36.257c.213 0 .386.174.386.386v33.943a.386.386 0 0 1-.386.386H41.619v2.314h11.224c1.489 0 2.7-1.211 2.7-2.7V2.7c0-1.489-1.211-2.7-2.7-2.7H16.586a2.703 2.703 0 0 0-2.7 2.7v33.943c0 1.489 1.21 2.7 2.7 2.7" fill="#263053"/>
        <mask id="ft2ewxbg9b" fill="#fff">
            <use xlink:href="#le4pyotc2a"/>
        </mask>
        <path fill="#263053" mask="url(#ft2ewxbg9b)" d="M7.329 56.828h2.314v-3.05H7.329z"/>
        <path d="M7.329 57.89v6.524h-.772V43.566c.128.01.255.02.386.02.13 0 .258-.01.386-.02v8.873h2.314v-4.72c3.716 2.02 7.45 3.036 11.186 3.036 3.734 0 7.47-1.016 11.185-3.036v17.467H9.643V57.89H7.329zM6.943 35.87c1.489 0 2.7 1.212 2.7 2.7 0 1.49-1.211 2.7-2.7 2.7a2.703 2.703 0 0 1-2.7-2.7c0-1.488 1.211-2.7 2.7-2.7zm27.771 7.715c.13 0 .258-.01.386-.02v20.848h-.771V43.566c.128.01.255.02.385.02zm0-7.715c1.49 0 2.7 1.212 2.7 2.7 0 1.49-1.21 2.7-2.7 2.7a2.703 2.703 0 0 1-2.7-2.7c0-1.488 1.211-2.7 2.7-2.7zM48.6 50.755c3.734 0 7.47-1.016 11.186-3.036v17.467H37.414V47.72c3.716 2.02 7.45 3.035 11.186 3.035zm13.886-7.17c.13 0 .257-.01.385-.019v20.848H62.1V43.566c.128.01.255.02.386.02zm0-7.714c1.489 0 2.7 1.212 2.7 2.7 0 1.49-1.211 2.7-2.7 2.7a2.703 2.703 0 0 1-2.7-2.7c0-1.488 1.21-2.7 2.7-2.7zm2.7 29.315V42.79A5.01 5.01 0 0 0 67.5 38.57a5.02 5.02 0 0 0-5.014-5.014 5.02 5.02 0 0 0-5.015 5.014 5.01 5.01 0 0 0 2.315 4.219v2.255c-7.52 4.539-14.852 4.538-22.372 0V42.79a5.01 5.01 0 0 0 2.315-4.219 5.02 5.02 0 0 0-5.015-5.014 5.02 5.02 0 0 0-5.014 5.014 5.01 5.01 0 0 0 2.314 4.219v2.255c-7.52 4.539-14.851 4.538-22.371 0V42.79a5.01 5.01 0 0 0 2.314-4.219 5.02 5.02 0 0 0-5.014-5.014 5.02 5.02 0 0 0-5.014 5.014 5.01 5.01 0 0 0 2.314 4.219v22.396H0V67.5h68.657v-2.314h-3.471zM40.462 27.276a.386.386 0 0 1-.386.386H28.46a.386.386 0 0 1-.385-.386v-8.114c0-.212.172-.386.385-.386h11.615c.213 0 .386.174.386.386v8.114zm-12-10.814a2.704 2.704 0 0 0-2.7 2.7v8.114c0 1.49 1.211 2.7 2.7 2.7h11.614c1.489 0 2.7-1.21 2.7-2.7v-8.114a2.7 2.7 0 0 0-2.1-2.627v-2.863a4.915 4.915 0 0 0-4.91-4.91H32.77a4.914 4.914 0 0 0-4.908 4.91v1.49h2.314v-1.49a2.597 2.597 0 0 1 2.594-2.596h2.997a2.598 2.598 0 0 1 2.595 2.596v2.79h-9.9z" fill="#263053" mask="url(#ft2ewxbg9b)"/>
        <path fill="#263053" mask="url(#ft2ewxbg9b)" d="M29.719 24.377h2.1v-2.314h-2.1zM33.218 24.377h2.1v-2.314h-2.1zM36.718 24.377h2.1v-2.314h-2.1z"/>
    </g>
</svg>
