<svg width="49" height="49" viewBox="0 0 49 49" xmlns="http://www.w3.org/2000/svg">
    <g fill="none" fill-rule="evenodd">
        <path fill="#FFF" d="M4.031 42.62V9.953l20.124-8.85 20.193 8.85V45z"/>
        <path fill="#FBC143" d="M1.356 19.223v4.441h46.207v-4.44zM1 43h46v4H1zM20 32h8v11h-8z"/>
        <circle fill="#FBC143" cx="24" cy="11" r="4"/>
        <g fill="#263053">
            <path d="M43.375 41.847h-4.213a.938.938 0 0 0 .175-.524V24.347h4.038v17.5zm-15.93-10.47h-6.58c-.784 0-1.421.637-1.421 1.421v9.049h-8.7a.938.938 0 0 0 .175-.524V24.347h26.473v16.976c0 .198.073.371.175.524h-8.7v-9.049c0-.784-.637-1.42-1.421-1.42zm-6.057 10.47h5.534v-8.525h-5.534v8.525zM1.944 19.86h44.422v2.543H1.944V19.86zm2.992-9.294 19.216-8.575 19.223 8.574v7.35H4.935v-7.349zM46.89 24.347c.784 0 1.42-.637 1.42-1.42v-3.59c0-.784-.636-1.421-1.42-1.421h-1.57v-7.69c0-.59-.373-1.126-.87-1.31L24.65.086c-.317-.118-.67-.118-1.046.024L3.916 8.894a1.43 1.43 0 0 0-.925 1.333v7.689h-1.57c-.784 0-1.421.637-1.421 1.42v3.59c0 .784.637 1.421 1.42 1.421h1.571v2.02a.972.972 0 1 0 1.945 0v-2.02h4.038v16.976c0 .198.073.371.175.524H4.936V30.854a.972.972 0 1 0-1.945 0v10.993h-1.57c-.784 0-1.421.637-1.421 1.42v3.59c0 .784.637 1.421 1.42 1.421h30.962a.972.972 0 1 0 0-1.944H1.944v-2.543h44.423v2.543h-8.47a.972.972 0 1 0 0 1.944h8.993c.784 0 1.42-.637 1.42-1.42v-3.59c0-.784-.636-1.421-1.42-1.421h-1.57v-17.5h1.57z"/>
            <path d="M24.155 13.429a2.77 2.77 0 0 1-2.767-2.767 2.77 2.77 0 0 1 2.767-2.767 2.77 2.77 0 0 1 2.767 2.767 2.77 2.77 0 0 1-2.767 2.767m0-7.479a4.717 4.717 0 0 0-4.711 4.712 4.717 4.717 0 0 0 4.711 4.711 4.717 4.717 0 0 0 4.712-4.711 4.717 4.717 0 0 0-4.712-4.712"/>
        </g>
    </g>
</svg>
