<svg width="18" height="20" viewBox="0 0 18 20" xmlns="http://www.w3.org/2000/svg">
    <path d="M17.703 13.507 15.896 11.7V8.62a6.74 6.74 0 0 0-6.024-6.693V.588h-1.34v1.339a6.794 6.794 0 0 0-6.024 6.694V11.7L.701 13.507a.61.61 0 0 0-.2.469v2.008a.63.63 0 0 0 .669.67h4.685a3.347 3.347 0 1 0 6.694 0h4.686a.63.63 0 0 0 .669-.67v-2.008a.61.61 0 0 0-.2-.469zm-8.5 5.154c-1.11 0-2.009-.899-2.009-2.008h4.016c0 1.11-.899 2.008-2.008 2.008zm7.362-3.347H1.84v-1.07l1.807-1.808a.61.61 0 0 0 .201-.468V8.62a5.355 5.355 0 1 1 10.71 0v3.347a.61.61 0 0 0 .201.468l1.807 1.807v1.071z" fill="#FFF" fill-rule="nonzero"/>
</svg>
