<?xml version="1.0" encoding="UTF-8"?>
<svg width="43px" height="49px" viewBox="0 0 43 49" version="1.1" xmlns="http://www.w3.org/2000/svg" xmlns:xlink="http://www.w3.org/1999/xlink">
    <title>36F2656D-4BA7-47C9-B7A9-2444F76137B4</title>
    <g id="Page-1" stroke="none" stroke-width="1" fill="none" fill-rule="evenodd">
        <g id="01-Homepage-Executive-001" transform="translate(-596.000000, -112.000000)" fill="#FFFFFF">
            <g id="Header" transform="translate(-1.000000, 0.000000)">
                <g id="Group-11" transform="translate(589.000000, 112.000000)">
                    <g id="Group-3" transform="translate(8.000000, 0.000000)">
                        <path d="M38.9061734,43.1514892 C38.7521517,43.2008359 38.5786904,43.1529845 38.4650433,43.033356 L36.7394025,41.2000495 C36.6167833,41.0699536 36.5868762,40.8755573 36.6646347,40.7155542 L37.279226,39.4609505 L37.5349319,39.5402043 C39.0063622,40.0067554 40.0561022,41.2404241 40.311808,42.7208266 L38.9061734,43.1514892 Z M26.7893034,40.7918173 C26.4468669,41.2179938 25.8487245,41.3136966 25.3956316,41.008644 L23.4322291,39.7002074 L26.9463158,36.1861207 L29.5601981,37.014548 L26.7893034,40.7918173 Z M15.5546935,40.8232198 L12.7583777,37.014548 L15.3722601,36.1861207 L18.8863467,39.7002074 L16.9244396,41.008644 C16.4698514,41.3122012 15.8702136,41.2179938 15.5546935,40.8232198 L15.5546935,40.8232198 Z M5.65394118,40.7140588 C5.73169969,40.8755573 5.70328793,41.0699536 5.58066873,41.2000495 L3.85353251,43.0348514 C3.7413808,43.1529845 3.5679195,43.1978452 3.41240248,43.1514892 L2.0067678,42.7208266 C2.26247368,41.2404241 3.31370898,40.0067554 4.78513932,39.5402043 L5.03934985,39.4609505 L5.65394118,40.7140588 Z M19.9435635,43.1709288 L18.925226,42.0105325 L21.1592879,40.5211579 L23.4621362,42.0553932 L22.6232415,43.1709288 L19.9435635,43.1709288 Z M17.7020248,33.2582136 C19.0104613,33.7741115 20.3802074,34.0313127 21.7469628,34.0313127 C22.9896037,34.0313127 24.2277585,33.8055139 25.4210526,33.3823282 L25.4210526,34.9629195 L21.1592879,39.2246842 L16.8975232,34.9629195 L16.8975232,32.9426935 L17.7020248,33.2582136 Z M12.4114551,25.6244211 L12.4114551,23.402322 C12.4114551,22.8654892 11.9763065,22.4303406 11.4394737,22.4303406 C11.3078824,22.4303406 11.1807771,22.457257 11.0656347,22.5066037 C10.9504923,22.457257 10.8248824,22.4303406 10.6917957,22.4303406 C9.99196904,22.4303406 9.42074303,21.8606099 9.42074303,21.1592879 L9.42074303,19.6639319 C9.42074303,19.0418638 9.87832198,18.5483963 10.4674923,18.4377399 L10.4674923,18.9162539 C10.4674923,19.4530867 10.9026409,19.8882353 11.4394737,19.8882353 C11.9763065,19.8882353 12.4114551,19.4530867 12.4114551,18.9162539 L12.4323901,16.3262972 C15.1599195,17.5584706 18.4870867,18.3928793 21.9069659,18.3928793 C25.3358173,18.3928793 28.6719567,17.5554799 31.4024768,16.3188204 L31.4024768,18.9162539 C31.4024768,19.4530867 31.8376254,19.8882353 32.3744582,19.8882353 C32.911291,19.8882353 33.3464396,19.4530867 33.3464396,18.9162539 L33.3464396,18.8743839 C33.524387,19.0927059 33.6455108,19.3603746 33.6455108,19.6639319 L33.6455108,21.1592879 C33.6455108,21.6781765 33.3314861,22.1208019 32.88587,22.3196842 C32.734839,22.2224861 32.5673591,22.1536997 32.3744582,22.1536997 C31.8376254,22.1536997 31.4024768,22.5888483 31.4024768,23.1241858 L31.4024768,25.3911455 C31.4024768,27.4263251 30.1927337,29.2611269 28.3220433,30.0626378 L25.3268452,31.3456533 C23.1107276,32.2966997 20.6568483,32.3325882 18.4138142,31.4488328 L15.6339474,30.3542322 C13.6765263,29.5841238 12.4114551,27.728387 12.4114551,25.6244211 L12.4114551,25.6244211 Z M7.925387,9.94411765 C7.925387,5.68235294 14.4585975,1.94396285 21.9069659,1.94396285 C29.3553344,1.94396285 35.8885449,5.68235294 35.8885449,9.94411765 C35.8885449,10.7919845 34.9419845,11.9508854 33.3464396,13.0574489 L33.3464396,10.6544118 C33.3464396,9.84093808 32.8739071,9.09326006 32.1411827,8.75082353 C21.8680867,3.93577709 13.7797059,7.53808978 11.5471393,8.7553096 C10.8817059,9.11718576 10.4674923,9.81850774 10.4674923,10.5856254 L10.4674923,13.0574489 C8.87344272,11.9508854 7.925387,10.7919845 7.925387,9.94411765 L7.925387,9.94411765 Z M12.4503344,13.9068111 L31.4024768,13.9068111 L31.4024768,14.2013963 C28.8977554,15.4649721 25.5586254,16.4489164 21.9069659,16.4489164 C18.2747461,16.4489164 14.9490743,15.4739443 12.4473437,14.2193406 L12.4503344,13.9068111 Z M31.4024768,11.9628483 L12.4652879,11.9628483 L12.4772508,10.4615108 C14.5079443,9.35195666 21.8680867,6.08460372 31.3157461,10.5108576 C31.3665882,10.5347833 31.4024768,10.5960929 31.4024768,10.6544118 L31.4024768,11.9628483 Z M38.1211115,37.6874582 L27.3650155,34.2795418 L27.3650155,32.5882941 L29.0876656,31.8495882 C31.6746316,30.7415294 33.3464396,28.2054056 33.3464396,25.3911455 L33.3464396,24.2083189 C34.6429133,23.7926099 35.5894737,22.591839 35.5894737,21.1592879 L35.5894737,19.6639319 C35.5894737,18.2313808 34.6429133,17.0306099 33.3464396,16.6149009 L33.3464396,15.3094551 C36.0679876,13.6974613 37.8325077,11.701161 37.8325077,9.94411765 C37.8325077,4.55335913 30.5396563,0 21.9069659,0 C13.2742755,0 5.98142415,4.55335913 5.98142415,9.94411765 C5.98142415,11.701161 7.74594427,13.6974613 10.4674923,15.3094551 L10.4674923,16.4713467 C8.80166563,16.5894799 7.47678019,17.9681981 7.47678019,19.6639319 L7.47678019,21.1592879 C7.47678019,22.8550217 8.80166563,24.2337399 10.4674923,24.3518731 L10.4674923,25.6244211 C10.4674923,28.5328885 12.2155635,31.0989195 14.9206625,32.163613 L14.9909443,32.1920248 C14.9789814,32.2533344 14.9535604,32.3101579 14.9535604,32.3744582 L14.9535604,34.2795418 L4.19895975,37.6874582 C1.68676161,38.4829876 0,40.7873313 0,43.4206533 L0,47.3280186 C0,47.8648514 0.435148607,48.3 0.971981424,48.3 C1.50881424,48.3 1.94396285,47.8648514 1.94396285,47.3280186 L1.94396285,44.7350712 L2.84267183,45.0102167 C3.06847059,45.0804985 3.30025077,45.1133963 3.53203096,45.1133963 C4.17952012,45.1133963 4.8165418,44.8487183 5.26963467,44.3672136 L6.99527554,42.5339071 C7.66968111,41.8176316 7.83267492,40.7424706 7.39902167,39.8587152 L6.91303096,38.8672941 L10.802452,37.6336254 L14.0129814,42.0060464 C14.6036471,42.7447523 15.4649721,43.1335449 16.3412508,43.1335449 C16.6313498,43.1335449 16.9229443,43.0886842 17.2085573,43.0004582 L18.9820495,45.0236749 L18.047452,46.89287 C17.808195,47.3728793 18.0025913,47.9575635 18.4826006,48.1983158 C18.6216687,48.2671022 18.769709,48.3 18.9162539,48.3 C19.2721486,48.3 19.6160805,48.1041084 19.7865511,47.7616718 L21.1099412,45.1148916 L21.21013,45.1148916 L22.5335201,47.7616718 C22.7039907,48.1041084 23.0479226,48.3 23.4038173,48.3 C23.5488669,48.3 23.6984025,48.2671022 23.8374706,48.1983158 C24.3174799,47.9575635 24.5118762,47.3728793 24.2726192,46.89287 L23.3828824,45.1148916 L23.5952229,45.1148916 L25.1728235,43.0139164 C25.4360062,43.0871889 25.7021796,43.1305542 25.9698483,43.1305542 C26.850613,43.1305542 27.7224056,42.7342848 28.3310155,41.974644 L31.5176192,37.6336254 L35.4055449,38.8657988 L34.9195542,39.8602105 C34.4873963,40.7424706 34.6503901,41.8176316 35.3233003,42.5339071 L37.0489412,44.3657183 C37.5035294,44.8487183 38.1405511,45.1133963 38.7880402,45.1133963 C39.0183251,45.1133963 39.2501053,45.0804985 39.475904,45.0102167 L40.374613,44.7350712 L40.374613,47.3280186 C40.374613,47.8648514 40.8097616,48.3 41.3465944,48.3 C41.8834272,48.3 42.3185759,47.8648514 42.3185759,47.3280186 L42.3185759,43.4206533 C42.3185759,40.7873313 40.6318142,38.4829876 38.1211115,37.6874582 L38.1211115,37.6874582 Z" id="Fill-1"></path>
                    </g>
                </g>
            </g>
        </g>
    </g>
</svg>