<?xml version="1.0" encoding="UTF-8"?>
<svg width="49px" height="49px" viewBox="0 0 49 49" version="1.1" xmlns="http://www.w3.org/2000/svg" xmlns:xlink="http://www.w3.org/1999/xlink">
    <title>EA6460A1-A68F-42EE-BDAA-F343A9F3E69B</title>
    <g id="Page-1" stroke="none" stroke-width="1" fill="none" fill-rule="evenodd">
        <g id="01-Homepage-Executive-001" transform="translate(-1072.000000, -112.000000)" fill="#FFFFFF">
            <g id="Header" transform="translate(-1.000000, 0.000000)">
                <g id="Group-14" transform="translate(1073.000000, 112.000000)">
                    <path d="M45.8326625,0 L2.46733746,0 C1.10656347,0 0,1.10656347 0,2.46733746 L0,20.5237616 C0,21.0605944 0.435148607,21.495743 0.971981424,21.495743 C1.50881424,21.495743 1.94396285,21.0605944 1.94396285,20.5237616 L1.94396285,10.9160991 L38.0164365,10.9160991 C38.5547647,10.9160991 38.9899133,10.4809505 38.9899133,9.94411765 C38.9899133,9.40728483 38.5547647,8.97213622 38.0164365,8.97213622 L1.94396285,8.97213622 L1.94396285,2.46733746 C1.94396285,2.17873375 2.17873375,1.94396285 2.46733746,1.94396285 L45.8326625,1.94396285 C46.1212663,1.94396285 46.3560372,2.17873375 46.3560372,2.46733746 L46.3560372,8.97213622 L42.3125944,8.97213622 C41.7742663,8.97213622 41.3391176,9.40728483 41.3391176,9.94411765 C41.3391176,10.4809505 41.7742663,10.9160991 42.3125944,10.9160991 L46.3560372,10.9160991 L46.3560372,45.8326625 C46.3560372,46.1212663 46.1212663,46.3560372 45.8326625,46.3560372 L2.46733746,46.3560372 C2.17873375,46.3560372 1.94396285,46.1212663 1.94396285,45.8326625 L1.94396285,27.4786625 C1.94396285,26.9433251 1.50881424,26.5081765 0.971981424,26.5081765 C0.435148607,26.5081765 0,26.9433251 0,27.4786625 L0,45.8326625 C0,47.1934365 1.10656347,48.3 2.46733746,48.3 L45.8326625,48.3 C47.1934365,48.3 48.3,47.1934365 48.3,45.8326625 L48.3,2.46733746 C48.3,1.10656347 47.1934365,0 45.8326625,0" id="Fill-1"></path>
                    <path d="M5.45804954,4.48606811 C4.92121672,4.48606811 4.48606811,4.92121672 4.48606811,5.45804954 C4.48606811,5.99488235 4.92121672,6.43003096 5.45804954,6.43003096 L6.95340557,6.43003096 C7.49023839,6.43003096 7.925387,5.99488235 7.925387,5.45804954 C7.925387,4.92121672 7.49023839,4.48606811 6.95340557,4.48606811 L5.45804954,4.48606811 Z" id="Fill-4"></path>
                    <path d="M11.4394737,14.9535604 L5.45804954,14.9535604 C4.92121672,14.9535604 4.48606811,15.388709 4.48606811,15.9255418 C4.48606811,16.4623746 4.92121672,16.8975232 5.45804954,16.8975232 L11.4394737,16.8975232 C11.9763065,16.8975232 12.4114551,16.4623746 12.4114551,15.9255418 C12.4114551,15.388709 11.9763065,14.9535604 11.4394737,14.9535604" id="Fill-6"></path>
                    <path d="M5.45804954,21.3832923 L9.94411765,21.3832923 C10.4809505,21.3832923 10.9160991,20.9481437 10.9160991,20.4113108 C10.9160991,19.874478 10.4809505,19.4393294 9.94411765,19.4393294 L5.45804954,19.4393294 C4.92121672,19.4393294 4.48606811,19.874478 4.48606811,20.4113108 C4.48606811,20.9481437 4.92121672,21.3832923 5.45804954,21.3832923" id="Fill-8"></path>
                    <path d="M5.606987,40.5513641 C5.606987,41.0881969 6.0421356,41.5233455 6.57896842,41.5233455 L42.4675133,41.5233455 C43.0058415,41.5233455 43.4409901,41.0881969 43.4409901,40.5513641 C43.4409901,40.0145313 43.0058415,39.5793827 42.4675133,39.5793827 L6.57896842,39.5793827 C6.0421356,39.5793827 5.606987,40.0145313 5.606987,40.5513641" id="Fill-10"></path>
                    <path d="M8.82260062,35.0934641 C8.12127864,35.0934641 7.55154799,34.5237334 7.55154799,33.8224115 C7.55154799,33.1210895 8.12127864,32.5513588 8.82260062,32.5513588 C9.5239226,32.5513588 10.0936533,33.1210895 10.0936533,33.8224115 C10.0936533,34.5237334 9.5239226,35.0934641 8.82260062,35.0934641 M17.7947368,23.5792226 C18.4960588,23.5792226 19.0657895,24.1489533 19.0657895,24.8502752 C19.0657895,25.5515972 18.4960588,26.1213279 17.7947368,26.1213279 C17.0934149,26.1213279 16.5236842,25.5515972 16.5236842,24.8502752 C16.5236842,24.1489533 17.0934149,23.5792226 17.7947368,23.5792226 M29.7575851,28.0652907 C30.4589071,28.0652907 31.0286378,28.6350214 31.0286378,29.3363433 C31.0286378,30.0376653 30.4589071,30.607396 29.7575851,30.607396 C29.0562632,30.607396 28.4865325,30.0376653 28.4865325,29.3363433 C28.4865325,28.6350214 29.0562632,28.0652907 29.7575851,28.0652907 M10.3119752,30.9902071 C9.86486378,30.7539409 9.36242415,30.607396 8.82260062,30.607396 C7.04910836,30.607396 5.60758514,32.0489192 5.60758514,33.8224115 C5.60758514,35.5944084 7.04910836,37.0374269 8.82260062,37.0374269 C10.5960929,37.0374269 12.0376161,35.5944084 12.0376161,33.8224115 C12.0376161,33.2810926 11.8910712,32.7801483 11.654805,32.3315415 C11.6862074,32.3076158 11.7235913,32.2956529 11.7534985,32.2657458 L16.3262972,27.6929471 C16.7689226,27.9232319 17.2623901,28.0652907 17.7947368,28.0652907 C18.8444768,28.0652907 19.7686068,27.5523836 20.3562817,26.7718077 L26.5500464,29.2496127 C26.5500464,29.2795198 26.5425697,29.3064362 26.5425697,29.3363433 C26.5425697,31.1083402 27.9840929,32.5513588 29.7575851,32.5513588 C31.5310774,32.5513588 32.9726006,31.1083402 32.9726006,29.3363433 C32.9726006,28.8204455 32.8395139,28.3389409 32.6226873,27.906783 L40.000774,19.2621297 L40.000774,21.1118851 C40.000774,21.648718 40.4359226,22.0838666 40.9727554,22.0838666 C41.5095882,22.0838666 41.9447368,21.648718 41.9447368,21.1118851 L41.9447368,16.625817 C41.9447368,16.6123588 41.9387554,16.600396 41.9372601,16.5869378 C41.9342693,16.5196467 41.9148297,16.4568418 41.8983808,16.3910461 C41.8834272,16.3327272 41.8759505,16.272913 41.8505294,16.2205755 C41.8266037,16.1697334 41.7892198,16.1278635 41.7578173,16.0815074 C41.7159474,16.0231885 41.6800588,15.9648697 41.6277214,15.9155229 C41.6172539,15.9065508 41.6142632,15.8945879 41.6037957,15.8856158 C41.5664118,15.8542133 41.5215511,15.8437458 41.4826718,15.8183248 C41.4258483,15.7824362 41.3720155,15.7450523 41.3092105,15.7211266 C41.2389288,15.6957056 41.1686471,15.6882288 41.0953746,15.6792567 C41.0535046,15.6732752 41.0161207,15.6538356 40.9727554,15.6538356 L36.4866873,15.6538356 C35.9498545,15.6538356 35.5147059,16.0889842 35.5147059,16.625817 C35.5147059,17.1626498 35.9498545,17.5977985 36.4866873,17.5977985 L38.8657988,17.5977985 L31.2589226,26.5116158 C30.8088204,26.2708635 30.3033901,26.1213279 29.7575851,26.1213279 C28.7078452,26.1213279 27.7837152,26.634235 27.1960402,27.4148108 L21.0022755,24.9370059 C21.0022755,24.9070988 21.0097523,24.8801824 21.0097523,24.8502752 C21.0097523,23.076783 19.5682291,21.6352598 17.7947368,21.6352598 C16.0212446,21.6352598 14.5797214,23.076783 14.5797214,24.8502752 C14.5797214,25.382622 14.7217802,25.8760895 14.9505697,26.3187149 L10.3777709,30.8915136 C10.3493591,30.9214207 10.3373963,30.9588046 10.3119752,30.9902071" id="Fill-12"></path>
                </g>
            </g>
        </g>
    </g>
</svg>